{"frames": {

"1.png":
{
	"frame": {"x":714,"y":904,"w":89,"h":116},
	"rotated": false,
	"trimmed": false,
	"spriteSourceSize": {"x":0,"y":0,"w":89,"h":116},
	"sourceSize": {"w":89,"h":116}
},
"2.png":
{
	"frame": {"x":905,"y":900,"w":247,"h":118},
	"rotated": false,
	"trimmed": false,
	"spriteSourceSize": {"x":0,"y":0,"w":247,"h":118},
	"sourceSize": {"w":247,"h":118}
},
"3.png":
{
	"frame": {"x":1283,"y":361,"w":51,"h":30},
	"rotated": false,
	"trimmed": false,
	"spriteSourceSize": {"x":0,"y":0,"w":51,"h":30},
	"sourceSize": {"w":51,"h":30}
},
"4.png":
{
	"frame": {"x":404,"y":723,"w":150,"h":180},
	"rotated": false,
	"trimmed": false,
	"spriteSourceSize": {"x":0,"y":0,"w":150,"h":180},
	"sourceSize": {"w":150,"h":180}
},
"5.png":
{
	"frame": {"x":1283,"y":319,"w":52,"h":40},
	"rotated": false,
	"trimmed": false,
	"spriteSourceSize": {"x":0,"y":0,"w":52,"h":40},
	"sourceSize": {"w":52,"h":40}
},
"6.png":
{
	"frame": {"x":1283,"y":223,"w":52,"h":94},
	"rotated": false,
	"trimmed": false,
	"spriteSourceSize": {"x":0,"y":0,"w":52,"h":94},
	"sourceSize": {"w":52,"h":94}
},
"7.png":
{
	"frame": {"x":1283,"y":64,"w":58,"h":50},
	"rotated": false,
	"trimmed": false,
	"spriteSourceSize": {"x":0,"y":0,"w":58,"h":50},
	"sourceSize": {"w":58,"h":50}
},
"8.png":
{
	"frame": {"x":1283,"y":393,"w":48,"h":48},
	"rotated": false,
	"trimmed": false,
	"spriteSourceSize": {"x":0,"y":0,"w":48,"h":48},
	"sourceSize": {"w":48,"h":48}
},
"9.png":
{
	"frame": {"x":1283,"y":196,"w":55,"h":25},
	"rotated": false,
	"trimmed": false,
	"spriteSourceSize": {"x":0,"y":0,"w":55,"h":25},
	"sourceSize": {"w":55,"h":25}
},
"10.png":
{
	"frame": {"x":235,"y":723,"w":167,"h":193},
	"rotated": false,
	"trimmed": false,
	"spriteSourceSize": {"x":0,"y":0,"w":167,"h":193},
	"sourceSize": {"w":167,"h":193}
},
"11.png":
{
	"frame": {"x":840,"y":723,"w":60,"h":129},
	"rotated": false,
	"trimmed": true,
	"spriteSourceSize": {"x":4,"y":0,"w":60,"h":129},
	"sourceSize": {"w":69,"h":129}
},
"12.png":
{
	"frame": {"x":1,"y":723,"w":232,"h":287},
	"rotated": false,
	"trimmed": false,
	"spriteSourceSize": {"x":0,"y":0,"w":232,"h":287},
	"sourceSize": {"w":232,"h":287}
},
"13.png":
{
	"frame": {"x":781,"y":864,"w":71,"h":35},
	"rotated": false,
	"trimmed": false,
	"spriteSourceSize": {"x":0,"y":0,"w":71,"h":35},
	"sourceSize": {"w":71,"h":35}
},
"14.png":
{
	"frame": {"x":664,"y":723,"w":174,"h":139},
	"rotated": false,
	"trimmed": false,
	"spriteSourceSize": {"x":0,"y":0,"w":174,"h":139},
	"sourceSize": {"w":174,"h":139}
},
"15.png":
{
	"frame": {"x":1084,"y":781,"w":104,"h":56},
	"rotated": false,
	"trimmed": false,
	"spriteSourceSize": {"x":0,"y":0,"w":104,"h":56},
	"sourceSize": {"w":104,"h":56}
},
"16.png":
{
	"frame": {"x":1283,"y":514,"w":45,"h":30},
	"rotated": false,
	"trimmed": false,
	"spriteSourceSize": {"x":0,"y":0,"w":45,"h":30},
	"sourceSize": {"w":45,"h":30}
},
"17.png":
{
	"frame": {"x":664,"y":864,"w":80,"h":38},
	"rotated": false,
	"trimmed": false,
	"spriteSourceSize": {"x":0,"y":0,"w":80,"h":38},
	"sourceSize": {"w":80,"h":38}
},
"18.png":
{
	"frame": {"x":267,"y":918,"w":138,"h":88},
	"rotated": false,
	"trimmed": false,
	"spriteSourceSize": {"x":0,"y":0,"w":138,"h":88},
	"sourceSize": {"w":138,"h":88}
},
"19.png":
{
	"frame": {"x":1283,"y":611,"w":39,"h":64},
	"rotated": false,
	"trimmed": false,
	"spriteSourceSize": {"x":0,"y":0,"w":39,"h":64},
	"sourceSize": {"w":39,"h":64}
},
"20.png":
{
	"frame": {"x":1227,"y":781,"w":75,"h":82},
	"rotated": false,
	"trimmed": false,
	"spriteSourceSize": {"x":0,"y":0,"w":75,"h":82},
	"sourceSize": {"w":75,"h":82}
},
"21.png":
{
	"frame": {"x":854,"y":854,"w":71,"h":44},
	"rotated": false,
	"trimmed": false,
	"spriteSourceSize": {"x":0,"y":0,"w":71,"h":44},
	"sourceSize": {"w":71,"h":44}
},
"22.png":
{
	"frame": {"x":1283,"y":116,"w":58,"h":31},
	"rotated": false,
	"trimmed": false,
	"spriteSourceSize": {"x":0,"y":0,"w":58,"h":31},
	"sourceSize": {"w":58,"h":31}
},
"23.png":
{
	"frame": {"x":1002,"y":723,"w":80,"h":118},
	"rotated": false,
	"trimmed": false,
	"spriteSourceSize": {"x":0,"y":0,"w":80,"h":118},
	"sourceSize": {"w":80,"h":118}
},
"24.png":
{
	"frame": {"x":1002,"y":843,"w":75,"h":54},
	"rotated": false,
	"trimmed": false,
	"spriteSourceSize": {"x":0,"y":0,"w":75,"h":54},
	"sourceSize": {"w":75,"h":54}
},
"25.png":
{
	"frame": {"x":1190,"y":781,"w":35,"h":44},
	"rotated": false,
	"trimmed": false,
	"spriteSourceSize": {"x":0,"y":0,"w":35,"h":44},
	"sourceSize": {"w":35,"h":44}
},
"26.png":
{
	"frame": {"x":1079,"y":843,"w":32,"h":51},
	"rotated": false,
	"trimmed": false,
	"spriteSourceSize": {"x":0,"y":0,"w":32,"h":51},
	"sourceSize": {"w":32,"h":51}
},
"27.png":
{
	"frame": {"x":1283,"y":546,"w":43,"h":63},
	"rotated": false,
	"trimmed": false,
	"spriteSourceSize": {"x":0,"y":0,"w":43,"h":63},
	"sourceSize": {"w":43,"h":63}
},
"28.png":
{
	"frame": {"x":555,"y":905,"w":157,"h":86},
	"rotated": false,
	"trimmed": false,
	"spriteSourceSize": {"x":0,"y":0,"w":157,"h":86},
	"sourceSize": {"w":157,"h":86}
},
"29.png":
{
	"frame": {"x":1150,"y":839,"w":64,"h":44},
	"rotated": false,
	"trimmed": false,
	"spriteSourceSize": {"x":0,"y":0,"w":64,"h":44},
	"sourceSize": {"w":64,"h":44}
},
"30.png":
{
	"frame": {"x":1315,"y":902,"w":24,"h":34},
	"rotated": false,
	"trimmed": false,
	"spriteSourceSize": {"x":0,"y":0,"w":24,"h":34},
	"sourceSize": {"w":24,"h":34}
},
"31.png":
{
	"frame": {"x":1222,"y":938,"w":65,"h":41},
	"rotated": false,
	"trimmed": false,
	"spriteSourceSize": {"x":0,"y":0,"w":65,"h":41},
	"sourceSize": {"w":65,"h":41}
},
"32.png":
{
	"frame": {"x":1283,"y":677,"w":38,"h":44},
	"rotated": false,
	"trimmed": false,
	"spriteSourceSize": {"x":0,"y":0,"w":38,"h":44},
	"sourceSize": {"w":38,"h":44}
},
"33.png":
{
	"frame": {"x":1283,"y":1,"w":58,"h":61},
	"rotated": false,
	"trimmed": false,
	"spriteSourceSize": {"x":0,"y":0,"w":58,"h":61},
	"sourceSize": {"w":58,"h":61}
},
"34.png":
{
	"frame": {"x":1283,"y":149,"w":57,"h":45},
	"rotated": false,
	"trimmed": false,
	"spriteSourceSize": {"x":0,"y":0,"w":57,"h":45},
	"sourceSize": {"w":57,"h":45}
},
"35.png":
{
	"frame": {"x":407,"y":905,"w":146,"h":109},
	"rotated": false,
	"trimmed": false,
	"spriteSourceSize": {"x":0,"y":0,"w":146,"h":109},
	"sourceSize": {"w":146,"h":109}
},
"36.png":
{
	"frame": {"x":902,"y":723,"w":98,"h":121},
	"rotated": false,
	"trimmed": false,
	"spriteSourceSize": {"x":0,"y":0,"w":98,"h":121},
	"sourceSize": {"w":98,"h":121}
},
"37.png":
{
	"frame": {"x":746,"y":864,"w":33,"h":38},
	"rotated": false,
	"trimmed": false,
	"spriteSourceSize": {"x":0,"y":0,"w":33,"h":38},
	"sourceSize": {"w":33,"h":38}
},
"38.png":
{
	"frame": {"x":556,"y":723,"w":106,"h":151},
	"rotated": false,
	"trimmed": true,
	"spriteSourceSize": {"x":0,"y":0,"w":106,"h":151},
	"sourceSize": {"w":107,"h":151}
},
"39.png":
{
	"frame": {"x":235,"y":918,"w":30,"h":96},
	"rotated": false,
	"trimmed": false,
	"spriteSourceSize": {"x":0,"y":0,"w":30,"h":96},
	"sourceSize": {"w":30,"h":96}
},
"40.png":
{
	"frame": {"x":1304,"y":781,"w":34,"h":42},
	"rotated": false,
	"trimmed": false,
	"spriteSourceSize": {"x":0,"y":0,"w":34,"h":42},
	"sourceSize": {"w":34,"h":42}
},
"41.png":
{
	"frame": {"x":1154,"y":938,"w":66,"h":43},
	"rotated": false,
	"trimmed": false,
	"spriteSourceSize": {"x":0,"y":0,"w":66,"h":43},
	"sourceSize": {"w":66,"h":43}
},
"42.png":
{
	"frame": {"x":1216,"y":865,"w":70,"h":70},
	"rotated": false,
	"trimmed": false,
	"spriteSourceSize": {"x":0,"y":0,"w":70,"h":70},
	"sourceSize": {"w":70,"h":70}
},
"43.png":
{
	"frame": {"x":1283,"y":443,"w":46,"h":69},
	"rotated": false,
	"trimmed": false,
	"spriteSourceSize": {"x":0,"y":0,"w":46,"h":69},
	"sourceSize": {"w":46,"h":69}
},
"44.png":
{
	"frame": {"x":927,"y":846,"w":73,"h":51},
	"rotated": false,
	"trimmed": false,
	"spriteSourceSize": {"x":0,"y":0,"w":73,"h":51},
	"sourceSize": {"w":73,"h":51}
},
"45.png":
{
	"frame": {"x":1288,"y":902,"w":25,"h":34},
	"rotated": false,
	"trimmed": false,
	"spriteSourceSize": {"x":0,"y":0,"w":25,"h":34},
	"sourceSize": {"w":25,"h":34}
},
"46.png":
{
	"frame": {"x":1084,"y":723,"w":247,"h":56},
	"rotated": false,
	"trimmed": false,
	"spriteSourceSize": {"x":0,"y":0,"w":247,"h":56},
	"sourceSize": {"w":247,"h":56}
},
"47.png":
{
	"frame": {"x":1154,"y":983,"w":67,"h":30},
	"rotated": false,
	"trimmed": false,
	"spriteSourceSize": {"x":0,"y":0,"w":67,"h":30},
	"sourceSize": {"w":67,"h":30}
},
"48.png":
{
	"frame": {"x":1113,"y":839,"w":35,"h":50},
	"rotated": false,
	"trimmed": false,
	"spriteSourceSize": {"x":0,"y":0,"w":35,"h":50},
	"sourceSize": {"w":35,"h":50}
},
"49.png":
{
	"frame": {"x":1304,"y":825,"w":26,"h":75},
	"rotated": false,
	"trimmed": false,
	"spriteSourceSize": {"x":0,"y":0,"w":26,"h":75},
	"sourceSize": {"w":26,"h":75}
},
"50.png":
{
	"frame": {"x":805,"y":901,"w":98,"h":119},
	"rotated": false,
	"trimmed": false,
	"spriteSourceSize": {"x":0,"y":0,"w":98,"h":119},
	"sourceSize": {"w":98,"h":119}
},
"background.jpg":
{
	"frame": {"x":1,"y":1,"w":1280,"h":720},
	"rotated": false,
	"trimmed": false,
	"spriteSourceSize": {"x":0,"y":0,"w":1280,"h":720},
	"sourceSize": {"w":1280,"h":720}
}},
"meta": {
	"app": "http://www.codeandweb.com/texturepacker",
	"version": "1.0",
	"image": "JsonData.png",
	"format": "RGBA8888",
	"size": {"w":1342,"h":1021},
	"scale": "1",
	"smartupdate": "$TexturePacker:SmartUpdate:5174a98d08b76dda6a423e1966643d8a:dacf5aa455c1dbd7547f0b329241d73d:793c45d93868c9e45f17a619bd1c0fd8$"
}
}
